C:\Users\Joy_Wang\IdeaProjects\tech-request-pom\tech-request-vo\src\main\java\com\cy\tech\request\vo\require\othset\OthSetHistory.java
C:\Users\Joy_Wang\IdeaProjects\tech-request-pom\tech-request-vo\src\main\java\com\cy\tech\request\vo\annotation\TemplateComMapParserInteractValueAnnotations.java
C:\Users\Joy_Wang\IdeaProjects\tech-request-pom\tech-request-vo\src\main\java\com\cy\tech\request\vo\require\RequireFbkAttachment.java
C:\Users\Joy_Wang\IdeaProjects\tech-request-pom\tech-request-vo\src\main\java\com\cy\tech\request\vo\category\SimpleMiddleCategory.java
C:\Users\Joy_Wang\IdeaProjects\tech-request-pom\tech-request-vo\src\main\java\com\cy\tech\request\vo\require\othset\OthSetTheme.java
C:\Users\Joy_Wang\IdeaProjects\tech-request-pom\tech-request-vo\src\main\java\com\cy\tech\request\vo\template\component\AbstractComBase.java
C:\Users\Joy_Wang\IdeaProjects\tech-request-pom\tech-request-vo\src\main\java\com\cy\tech\request\vo\template\component\ComBaseCss.java
C:\Users\Joy_Wang\IdeaProjects\tech-request-pom\tech-request-vo\src\main\java\com\cy\tech\request\vo\require\TrnsBackup.java
C:\Users\Joy_Wang\IdeaProjects\tech-request-pom\tech-request-vo\src\main\java\com\cy\tech\request\vo\template\component\ComBaseInteractive.java
C:\Users\Joy_Wang\IdeaProjects\tech-request-pom\tech-request-vo\src\main\java\com\cy\tech\request\vo\require\feedback\ReqFbkReplyAttach.java
C:\Users\Joy_Wang\IdeaProjects\tech-request-pom\tech-request-vo\src\main\java\com\cy\tech\request\vo\template\component\ComListStringTypeTwo.java
C:\Users\Joy_Wang\IdeaProjects\tech-request-pom\tech-request-vo\src\main\java\com\cy\tech\request\vo\value\to\ReadRecordGroupAdvanceTo.java
C:\Users\Joy_Wang\IdeaProjects\tech-request-pom\tech-request-vo\src\main\java\com\cy\tech\request\vo\enums\SearchReportCustomType.java
C:\Users\Joy_Wang\IdeaProjects\tech-request-pom\tech-request-vo\src\main\java\com\cy\tech\request\vo\enums\ExtraSettingType.java
C:\Users\Joy_Wang\IdeaProjects\tech-request-pom\tech-request-vo\src\main\java\com\cy\tech\request\vo\pt\PtCheck.java
C:\Users\Joy_Wang\IdeaProjects\tech-request-pom\tech-request-vo\src\main\java\com\cy\tech\request\vo\require\RequireCheckItem.java
C:\Users\Joy_Wang\IdeaProjects\tech-request-pom\tech-request-vo\src\main\java\com\cy\tech\request\vo\pps6\Pps6ModelerExecSettingVO.java
C:\Users\Joy_Wang\IdeaProjects\tech-request-pom\tech-request-vo\src\main\java\com\cy\tech\request\vo\report\favorite\HomePageFavorite.java
C:\Users\Joy_Wang\IdeaProjects\tech-request-pom\tech-request-vo\src\main\java\com\cy\tech\request\vo\onpg\converter\WorkOnpgCheckRecordReplyTypeConverter.java
C:\Users\Joy_Wang\IdeaProjects\tech-request-pom\tech-request-vo\src\main\java\com\cy\tech\request\vo\require\TrRequire.java
C:\Users\Joy_Wang\IdeaProjects\tech-request-pom\tech-request-vo\src\main\java\com\cy\tech\request\vo\worktest\WorkTestInfoHistory.java
C:\Users\Joy_Wang\IdeaProjects\tech-request-pom\tech-request-vo\src\main\java\com\cy\tech\request\vo\converter\ForwardTypeConverter.java
C:\Users\Joy_Wang\IdeaProjects\tech-request-pom\tech-request-vo\src\main\java\com\cy\tech\request\vo\converter\RequireFinishMethodTypeConverter.java
C:\Users\Joy_Wang\IdeaProjects\tech-request-pom\tech-request-vo\src\main\java\com\cy\tech\request\vo\enums\OperationMode.java
C:\Users\Joy_Wang\IdeaProjects\tech-request-pom\tech-request-vo\src\main\java\com\cy\tech\request\vo\enums\RequireTraceType.java
C:\Users\Joy_Wang\IdeaProjects\tech-request-pom\tech-request-vo\src\main\java\com\cy\tech\request\vo\pps6\Pps6ModelerFormVO.java
C:\Users\Joy_Wang\IdeaProjects\tech-request-pom\tech-request-vo\src\main\java\com\cy\tech\request\vo\value\to\ReportCustomFilterDetailTo.java
C:\Users\Joy_Wang\IdeaProjects\tech-request-pom\tech-request-vo\src\main\java\com\cy\tech\request\vo\onpg\TrWorkOnpg.java
C:\Users\Joy_Wang\IdeaProjects\tech-request-pom\tech-request-vo\src\main\java\com\cy\tech\request\vo\enums\Search16QueryColumn.java
C:\Users\Joy_Wang\IdeaProjects\tech-request-pom\tech-request-vo\src\main\java\com\cy\tech\request\vo\anew\enums\SignLevelType.java
C:\Users\Joy_Wang\IdeaProjects\tech-request-pom\tech-request-vo\src\main\java\com\cy\tech\request\vo\converter\RequireStatusTypeConverter.java
C:\Users\Joy_Wang\IdeaProjects\tech-request-pom\tech-request-vo\src\main\java\com\cy\tech\request\vo\require\tros\TrOsAlert.java
C:\Users\Joy_Wang\IdeaProjects\tech-request-pom\tech-request-vo\src\main\java\com\cy\tech\request\vo\enums\Search13QueryColumn.java
C:\Users\Joy_Wang\IdeaProjects\tech-request-pom\tech-request-vo\src\main\java\com\cy\tech\request\vo\pps6\Pps6ModelerFlowVO.java
C:\Users\Joy_Wang\IdeaProjects\tech-request-pom\tech-request-vo\src\main\java\com\cy\tech\request\vo\setting\SettingCheckConfirmRight.java
C:\Users\Joy_Wang\IdeaProjects\tech-request-pom\tech-request-vo\src\main\java\com\cy\tech\request\vo\converter\SubNoticeTypeConverter.java
C:\Users\Joy_Wang\IdeaProjects\tech-request-pom\tech-request-vo\src\main\java\com\cy\tech\request\vo\require\setting\RequireExtraSetting.java
C:\Users\Joy_Wang\IdeaProjects\tech-request-pom\tech-request-vo\src\main\java\com\cy\tech\request\vo\pps6\Pps6ModelerFlow.java
C:\Users\Joy_Wang\IdeaProjects\tech-request-pom\tech-request-vo\src\main\java\com\cy\tech\request\vo\converter\AssignSendTypeConverter.java
C:\Users\Joy_Wang\IdeaProjects\tech-request-pom\tech-request-vo\src\main\java\com\cy\tech\request\vo\enums\AssignSendType.java
C:\Users\Joy_Wang\IdeaProjects\tech-request-pom\tech-request-vo\src\main\java\com\cy\tech\request\vo\onpg\enums\WorkOnpgHistoryBehavior.java
C:\Users\Joy_Wang\IdeaProjects\tech-request-pom\tech-request-vo\src\main\java\com\cy\tech\request\vo\enums\TrnsType.java
C:\Users\Joy_Wang\IdeaProjects\tech-request-pom\tech-request-vo\src\main\java\com\cy\tech\request\vo\config\VoConfig.java
C:\Users\Joy_Wang\IdeaProjects\tech-request-pom\tech-request-vo\src\main\java\com\cy\tech\request\vo\require\TrAlertInboxSendGroup.java
C:\Users\Joy_Wang\IdeaProjects\tech-request-pom\tech-request-vo\src\main\java\com\cy\tech\request\vo\template\component\to\ComRadioTo.java
C:\Users\Joy_Wang\IdeaProjects\tech-request-pom\tech-request-vo\src\main\java\com\cy\tech\request\vo\converter\InboxTypeConverter.java
C:\Users\Joy_Wang\IdeaProjects\tech-request-pom\tech-request-vo\src\main\java\com\cy\tech\request\vo\enums\WaitReadReasonType.java
C:\Users\Joy_Wang\IdeaProjects\tech-request-pom\tech-request-vo\src\main\java\com\cy\tech\request\vo\enums\CategoryType.java
C:\Users\Joy_Wang\IdeaProjects\tech-request-pom\tech-request-vo\src\main\java\com\cy\tech\request\vo\require\TrAlertInbox.java
C:\Users\Joy_Wang\IdeaProjects\tech-request-pom\tech-request-vo\src\main\java\com\cy\tech\request\vo\worktest\WorkTestInfo.java
C:\Users\Joy_Wang\IdeaProjects\tech-request-pom\tech-request-vo\src\main\java\com\cy\tech\request\vo\setting\asdep\SettingDefaultAssignSendDep.java
C:\Users\Joy_Wang\IdeaProjects\tech-request-pom\tech-request-vo\src\main\java\com\cy\tech\request\vo\template\component\ComBaseMapListStr.java
C:\Users\Joy_Wang\IdeaProjects\tech-request-pom\tech-request-vo\src\main\java\com\cy\tech\request\vo\worktest\converter\WorkTestRollbackTypeConverter.java
C:\Users\Joy_Wang\IdeaProjects\tech-request-pom\tech-request-vo\src\main\java\com\cy\tech\request\vo\require\FogbugzProjectMapping.java
C:\Users\Joy_Wang\IdeaProjects\tech-request-pom\tech-request-vo\src\main\java\com\cy\tech\request\vo\setting\asdep\SettingDefaultAssignSendDepHistory.java
C:\Users\Joy_Wang\IdeaProjects\tech-request-pom\tech-request-vo\src\main\java\com\cy\tech\request\vo\converter\AssignSendGroupsToConverter.java
C:\Users\Joy_Wang\IdeaProjects\tech-request-pom\tech-request-vo\src\main\java\com\cy\tech\request\vo\pt\enums\PtStatus.java
C:\Users\Joy_Wang\IdeaProjects\tech-request-pom\tech-request-vo\src\main\java\com\cy\tech\request\vo\category\SimpleSmallCategoryVO.java
C:\Users\Joy_Wang\IdeaProjects\tech-request-pom\tech-request-vo\src\main\java\com\cy\tech\request\vo\converter\RequireContentToConverter.java
C:\Users\Joy_Wang\IdeaProjects\tech-request-pom\tech-request-vo\src\main\java\com\cy\tech\request\vo\template\component\ComLabelTypeTwo.java
C:\Users\Joy_Wang\IdeaProjects\tech-request-pom\tech-request-vo\src\main\java\com\cy\tech\request\vo\column\CustomColumn.java
C:\Users\Joy_Wang\IdeaProjects\tech-request-pom\tech-request-vo\src\main\java\com\cy\tech\request\vo\value\to\CustomColumnDetailTo.java
C:\Users\Joy_Wang\IdeaProjects\tech-request-pom\tech-request-vo\src\main\java\com\cy\tech\request\vo\template\component\ComWebLayerNotify.java
C:\Users\Joy_Wang\IdeaProjects\tech-request-pom\tech-request-vo\src\main\java\com\cy\tech\request\vo\value\to\AssignSendGroupsTo.java
C:\Users\Joy_Wang\IdeaProjects\tech-request-pom\tech-request-vo\src\main\java\com\cy\tech\request\vo\onpg\WorkOnpgCheckRecordReply.java
C:\Users\Joy_Wang\IdeaProjects\tech-request-pom\tech-request-vo\src\main\java\com\cy\tech\request\vo\enums\RequireFinishMethodType.java
C:\Users\Joy_Wang\IdeaProjects\tech-request-pom\tech-request-vo\src\main\java\com\cy\tech\request\vo\converter\SidCustomerrConverter.java
C:\Users\Joy_Wang\IdeaProjects\tech-request-pom\tech-request-vo\src\main\java\com\cy\tech\request\vo\value\to\SetupInfoTo.java
C:\Users\Joy_Wang\IdeaProjects\tech-request-pom\tech-request-vo\src\main\java\com\cy\tech\request\vo\annotation\TemplateComMapParserInteractValueAnnotation.java
C:\Users\Joy_Wang\IdeaProjects\tech-request-pom\tech-request-vo\src\main\java\com\cy\tech\request\vo\category\TROtherCategory.java
C:\Users\Joy_Wang\IdeaProjects\tech-request-pom\tech-request-vo\src\main\java\com\cy\tech\request\vo\worktest\enums\WorkTestAttachmentBehavior.java
C:\Users\Joy_Wang\IdeaProjects\tech-request-pom\tech-request-vo\src\main\java\com\cy\tech\request\vo\converter\RequireFinishCodeTypeConverter.java
C:\Users\Joy_Wang\IdeaProjects\tech-request-pom\tech-request-vo\src\main\java\com\cy\tech\request\vo\enums\SearchReportCustomEnum.java
C:\Users\Joy_Wang\IdeaProjects\tech-request-pom\tech-request-vo\src\main\java\com\cy\tech\request\vo\require\RequireTempNotify.java
C:\Users\Joy_Wang\IdeaProjects\tech-request-pom\tech-request-vo\src\main\java\com\cy\tech\request\vo\require\RequireTrace.java
C:\Users\Joy_Wang\IdeaProjects\tech-request-pom\tech-request-vo\src\main\java\com\cy\tech\request\vo\onpg\converter\WorkOnpgStatusConverter.java
C:\Users\Joy_Wang\IdeaProjects\tech-request-pom\tech-request-vo\src\main\java\com\cy\tech\request\vo\template\component\ComListStringTypeOne.java
C:\Users\Joy_Wang\IdeaProjects\tech-request-pom\tech-request-vo\src\main\java\com\cy\tech\request\vo\require\othset\OthSetReply.java
C:\Users\Joy_Wang\IdeaProjects\tech-request-pom\tech-request-vo\src\main\java\com\cy\tech\request\vo\require\RequireCssContent.java
C:\Users\Joy_Wang\IdeaProjects\tech-request-pom\tech-request-vo\src\main\java\com\cy\tech\request\vo\setting\asdep\SettingDefaultAssignSendDepHistoryVO.java
C:\Users\Joy_Wang\IdeaProjects\tech-request-pom\tech-request-vo\src\main\java\com\cy\tech\request\vo\setting\sysnotify\converter\SettingSysNotifySettingMainInfoConverter.java
C:\Users\Joy_Wang\IdeaProjects\tech-request-pom\tech-request-vo\src\main\java\com\cy\tech\request\vo\require\othset\OthSetAlert.java
C:\Users\Joy_Wang\IdeaProjects\tech-request-pom\tech-request-vo\src\main\java\com\cy\tech\request\vo\require\setting\SettingSpecSignMode.java
C:\Users\Joy_Wang\IdeaProjects\tech-request-pom\tech-request-vo\src\main\java\com\cy\tech\request\vo\require\tros\TrOsReply.java
C:\Users\Joy_Wang\IdeaProjects\tech-request-pom\tech-request-vo\src\main\java\com\cy\tech\request\vo\require\RequireConfirmDep.java
C:\Users\Joy_Wang\IdeaProjects\tech-request-pom\tech-request-vo\src\main\java\com\cy\tech\request\vo\enums\Search15QueryColumn.java
C:\Users\Joy_Wang\IdeaProjects\tech-request-pom\tech-request-vo\src\main\java\com\cy\tech\request\vo\require\AssignSendInfo.java
C:\Users\Joy_Wang\IdeaProjects\tech-request-pom\tech-request-vo\src\main\java\com\cy\tech\request\vo\log\LogSyncMms.java
C:\Users\Joy_Wang\IdeaProjects\tech-request-pom\tech-request-vo\src\main\java\com\cy\tech\request\vo\template\FieldKeyMapping.java
C:\Users\Joy_Wang\IdeaProjects\tech-request-pom\tech-request-vo\src\main\java\com\cy\tech\request\vo\enums\tros\TrOsType.java
C:\Users\Joy_Wang\IdeaProjects\tech-request-pom\tech-request-vo\src\main\java\com\cy\tech\request\vo\require\TrAlertInboxHisVO.java
C:\Users\Joy_Wang\IdeaProjects\tech-request-pom\tech-request-vo\src\main\java\com\cy\tech\request\vo\require\notify\NotificationEvent.java
C:\Users\Joy_Wang\IdeaProjects\tech-request-pom\tech-request-vo\src\main\java\com\cy\tech\request\vo\worktest\WorkTestQAReport.java
C:\Users\Joy_Wang\IdeaProjects\tech-request-pom\tech-request-vo\src\main\java\com\cy\tech\request\vo\enums\ReqConfirmDepProcType.java
C:\Users\Joy_Wang\IdeaProjects\tech-request-pom\tech-request-vo\src\main\java\com\cy\tech\request\vo\require\pmis\PmisHistory.java
C:\Users\Joy_Wang\IdeaProjects\tech-request-pom\tech-request-vo\src\main\java\com\cy\tech\request\vo\value\to\SpecificDepTo.java
C:\Users\Joy_Wang\IdeaProjects\tech-request-pom\tech-request-vo\src\main\java\com\cy\tech\request\vo\template\CategoryKeyMapping.java
C:\Users\Joy_Wang\IdeaProjects\tech-request-pom\tech-request-vo\src\main\java\com\cy\tech\request\vo\worktest\converter\WorkTestStatusConverter.java
C:\Users\Joy_Wang\IdeaProjects\tech-request-pom\tech-request-vo\src\main\java\com\cy\tech\request\vo\value\to\ReportCustomFilterTo.java
C:\Users\Joy_Wang\IdeaProjects\tech-request-pom\tech-request-vo\src\main\java\com\cy\tech\request\vo\enums\OthSetAlertType.java
C:\Users\Joy_Wang\IdeaProjects\tech-request-pom\tech-request-vo\src\main\java\com\cy\tech\request\vo\onpg\WorkOnpgHistory.java
C:\Users\Joy_Wang\IdeaProjects\tech-request-pom\tech-request-vo\src\main\java\com\cy\tech\request\vo\require\TechManagerSignInfo.java
C:\Users\Joy_Wang\IdeaProjects\tech-request-pom\tech-request-vo\src\main\java\com\cy\tech\request\vo\anew\converter\SignLevelTypeConverter.java
C:\Users\Joy_Wang\IdeaProjects\tech-request-pom\tech-request-vo\src\main\java\com\cy\tech\request\vo\require\TrAlertInboxVO.java
C:\Users\Joy_Wang\IdeaProjects\tech-request-pom\tech-request-vo\src\main\java\com\cy\tech\request\vo\require\trace\TrRequireTrace.java
C:\Users\Joy_Wang\IdeaProjects\tech-request-pom\tech-request-vo\src\main\java\com\cy\tech\request\vo\enums\GroupSetupType.java
C:\Users\Joy_Wang\IdeaProjects\tech-request-pom\tech-request-vo\src\main\java\com\cy\tech\request\vo\template\component\ComSelectItemTypeOne.java
C:\Users\Joy_Wang\IdeaProjects\tech-request-pom\tech-request-vo\src\main\java\com\cy\tech\request\vo\converter\SetupInfoToConverter.java
C:\Users\Joy_Wang\IdeaProjects\tech-request-pom\tech-request-vo\src\main\java\com\cy\tech\request\vo\menu\TrMenuItem.java
C:\Users\Joy_Wang\IdeaProjects\tech-request-pom\tech-request-vo\src\main\java\com\cy\tech\request\vo\enums\OthSetStatus.java
C:\Users\Joy_Wang\IdeaProjects\tech-request-pom\tech-request-vo\src\main\java\com\cy\tech\request\vo\enums\ReqToBeReadType.java
C:\Users\Joy_Wang\IdeaProjects\tech-request-pom\tech-request-vo\src\main\java\com\cy\tech\request\vo\require\RequireConfirmDepHistory.java
C:\Users\Joy_Wang\IdeaProjects\tech-request-pom\tech-request-vo\src\main\java\com\cy\tech\request\vo\template\ComKeyFieldTemplate.java
C:\Users\Joy_Wang\IdeaProjects\tech-request-pom\tech-request-vo\src\main\java\com\cy\tech\request\vo\value\to\CustomColumnTo.java
C:\Users\Joy_Wang\IdeaProjects\tech-request-pom\tech-request-vo\src\main\java\com\cy\tech\request\vo\converter\ReqCateTypeConverter.java
C:\Users\Joy_Wang\IdeaProjects\tech-request-pom\tech-request-vo\src\main\java\com\cy\tech\request\vo\pt\PtAttachment.java
C:\Users\Joy_Wang\IdeaProjects\tech-request-pom\tech-request-vo\src\main\java\com\cy\tech\request\vo\value\to\WorkTestScheduleVO.java
C:\Users\Joy_Wang\IdeaProjects\tech-request-pom\tech-request-vo\src\main\java\com\cy\tech\request\vo\require\AssignSendSearchInfoVO.java
C:\Users\Joy_Wang\IdeaProjects\tech-request-pom\tech-request-vo\src\main\java\com\cy\tech\request\vo\enums\Search27QueryColumn.java
C:\Users\Joy_Wang\IdeaProjects\tech-request-pom\tech-request-vo\src\main\java\com\cy\tech\request\vo\require\tros\TrOsAttachment.java
C:\Users\Joy_Wang\IdeaProjects\tech-request-pom\tech-request-vo\src\main\java\com\cy\tech\request\vo\value\to\CustomColumnPackTo.java
C:\Users\Joy_Wang\IdeaProjects\tech-request-pom\tech-request-vo\src\main\java\com\cy\tech\request\vo\onpg\WorkOnpgAttachment.java
C:\Users\Joy_Wang\IdeaProjects\tech-request-pom\tech-request-vo\src\main\java\com\cy\tech\request\vo\onpg\WorkOnpgCheckRecord.java
C:\Users\Joy_Wang\IdeaProjects\tech-request-pom\tech-request-vo\src\main\java\com\cy\tech\request\vo\enums\RequireFinishCodeType.java
C:\Users\Joy_Wang\IdeaProjects\tech-request-pom\tech-request-vo\src\main\java\com\cy\tech\request\vo\constants\CacheConstants.java
C:\Users\Joy_Wang\IdeaProjects\tech-request-pom\tech-request-vo\src\main\java\com\cy\tech\request\vo\require\Favorite.java
C:\Users\Joy_Wang\IdeaProjects\tech-request-pom\tech-request-vo\src\main\java\com\cy\tech\request\vo\worktest\converter\WorkTestAttachmentBehaviorConverter.java
C:\Users\Joy_Wang\IdeaProjects\tech-request-pom\tech-request-vo\src\main\java\com\cy\tech\request\vo\require\feedback\ReqFbkReply.java
C:\Users\Joy_Wang\IdeaProjects\tech-request-pom\tech-request-vo\src\main\java\com\cy\tech\request\vo\converter\OthSetAttachmentBehaviorConverter.java
C:\Users\Joy_Wang\IdeaProjects\tech-request-pom\tech-request-vo\src\main\java\com\cy\tech\request\vo\pps6\converter\Pps6ModelerExecTypeConverter.java
C:\Users\Joy_Wang\IdeaProjects\tech-request-pom\tech-request-vo\src\main\java\com\cy\tech\request\vo\require\othset\OthSet.java
C:\Users\Joy_Wang\IdeaProjects\tech-request-pom\tech-request-vo\src\main\java\com\cy\tech\request\vo\pps6\enums\Pps6ModelerExecType.java
C:\Users\Joy_Wang\IdeaProjects\tech-request-pom\tech-request-vo\src\main\java\com\cy\tech\request\vo\onpg\enums\WorkOnpgAttachmentBehavior.java
C:\Users\Joy_Wang\IdeaProjects\tech-request-pom\tech-request-vo\src\main\java\com\cy\tech\request\vo\template\TemplateBaseDataField.java
C:\Users\Joy_Wang\IdeaProjects\tech-request-pom\tech-request-vo\src\main\java\com\cy\tech\request\vo\converter\SettingSpecSignModeConverter.java
C:\Users\Joy_Wang\IdeaProjects\tech-request-pom\tech-request-vo\src\main\java\com\cy\tech\request\vo\enums\CheckItemStatus.java
C:\Users\Joy_Wang\IdeaProjects\tech-request-pom\tech-request-vo\src\main\java\com\cy\tech\request\vo\require\AlertInbox.java
C:\Users\Joy_Wang\IdeaProjects\tech-request-pom\tech-request-vo\src\main\java\com\cy\tech\request\vo\onpg\converter\WorkOnpgHistoryBehaviorConverter.java
C:\Users\Joy_Wang\IdeaProjects\tech-request-pom\tech-request-vo\src\main\java\com\cy\tech\request\vo\require\AlertInboxSendGroup.java
C:\Users\Joy_Wang\IdeaProjects\tech-request-pom\tech-request-vo\src\main\java\com\cy\tech\request\vo\pt\PtAlreadyReply.java
C:\Users\Joy_Wang\IdeaProjects\tech-request-pom\tech-request-vo\src\main\java\com\cy\tech\request\vo\converter\ReadRecordStatusConverter.java
C:\Users\Joy_Wang\IdeaProjects\tech-request-pom\tech-request-vo\src\main\java\com\cy\tech\request\vo\enums\ForwardType.java
C:\Users\Joy_Wang\IdeaProjects\tech-request-pom\tech-request-vo\src\main\java\com\cy\tech\request\vo\require\tros\TrOsReplyAndReply.java
C:\Users\Joy_Wang\IdeaProjects\tech-request-pom\tech-request-vo\src\main\java\com\cy\tech\request\vo\require\RequireUnitSignInfo.java
C:\Users\Joy_Wang\IdeaProjects\tech-request-pom\tech-request-vo\src\main\java\com\cy\tech\request\vo\enums\RequireStatusType.java
C:\Users\Joy_Wang\IdeaProjects\tech-request-pom\tech-request-vo\src\main\java\com\cy\tech\request\vo\pt\PtReply.java
C:\Users\Joy_Wang\IdeaProjects\tech-request-pom\tech-request-vo\src\main\java\com\cy\tech\request\vo\setting\sysnotify\SettingSysNotify.java
C:\Users\Joy_Wang\IdeaProjects\tech-request-pom\tech-request-vo\src\main\java\com\cy\tech\request\vo\template\component\ComSeparatorTypeOne.java
C:\Users\Joy_Wang\IdeaProjects\tech-request-pom\tech-request-vo\src\main\java\com\cy\tech\request\vo\value\to\TemplateDefaultValueTo.java
C:\Users\Joy_Wang\IdeaProjects\tech-request-pom\tech-request-vo\src\main\java\com\cy\tech\request\vo\enums\RequireTransProgramType.java
C:\Users\Joy_Wang\IdeaProjects\tech-request-pom\tech-request-vo\src\main\java\com\cy\tech\request\vo\enums\WaitReadReasonConverter.java
C:\Users\Joy_Wang\IdeaProjects\tech-request-pom\tech-request-vo\src\main\java\com\cy\tech\request\vo\menu\TrMenuItemGroup.java
C:\Users\Joy_Wang\IdeaProjects\tech-request-pom\tech-request-vo\src\main\java\com\cy\tech\request\vo\pt\enums\PtAttachmentBehavior.java
C:\Users\Joy_Wang\IdeaProjects\tech-request-pom\tech-request-vo\src\main\java\com\cy\tech\request\vo\template\component\ComLabelTypeOne.java
C:\Users\Joy_Wang\IdeaProjects\tech-request-pom\tech-request-vo\src\main\java\com\cy\tech\request\vo\require\TrSubNoticeInfo.java
C:\Users\Joy_Wang\IdeaProjects\tech-request-pom\tech-request-vo\src\main\java\com\cy\tech\request\vo\setting\asdep\SettingDefaultAssignSendDepVO.java
C:\Users\Joy_Wang\IdeaProjects\tech-request-pom\tech-request-vo\src\main\java\com\cy\tech\request\vo\require\othset\OthSetAttachment.java
C:\Users\Joy_Wang\IdeaProjects\tech-request-pom\tech-request-vo\src\main\java\com\cy\tech\request\vo\log\LogSyncMmsActionType.java
C:\Users\Joy_Wang\IdeaProjects\tech-request-pom\tech-request-vo\src\main\java\com\cy\tech\request\vo\converter\RequireTraceTypeConverter.java
C:\Users\Joy_Wang\IdeaProjects\tech-request-pom\tech-request-vo\src\main\java\com\cy\tech\request\vo\enums\Search08QueryColumn.java
C:\Users\Joy_Wang\IdeaProjects\tech-request-pom\tech-request-vo\src\main\java\com\cy\tech\request\vo\template\component\ComListStringTypeThree.java
C:\Users\Joy_Wang\IdeaProjects\tech-request-pom\tech-request-vo\src\main\java\com\cy\tech\request\vo\setting\WorkTestSchedule.java
C:\Users\Joy_Wang\IdeaProjects\tech-request-pom\tech-request-vo\src\main\java\com\cy\tech\request\vo\pt\enums\PtHistoryBehavior.java
C:\Users\Joy_Wang\IdeaProjects\tech-request-pom\tech-request-vo\src\main\java\com\cy\tech\request\vo\template\component\ComRadioTypeFour.java
C:\Users\Joy_Wang\IdeaProjects\tech-request-pom\tech-request-vo\src\main\java\com\cy\tech\request\vo\enums\NotificationEventType.java
C:\Users\Joy_Wang\IdeaProjects\tech-request-pom\tech-request-vo\src\main\java\com\cy\tech\request\vo\enums\OthSetHistoryBehavior.java
C:\Users\Joy_Wang\IdeaProjects\tech-request-pom\tech-request-vo\src\main\java\com\cy\tech\request\vo\enums\RequireCheckItemType.java
C:\Users\Joy_Wang\IdeaProjects\tech-request-pom\tech-request-vo\src\main\java\com\cy\tech\request\vo\setting\sysnotify\vo\SettingManagetSysNotifyVO.java
C:\Users\Joy_Wang\IdeaProjects\tech-request-pom\tech-request-vo\src\main\java\com\cy\tech\request\vo\category\BasicDataSmallCategory.java
C:\Users\Joy_Wang\IdeaProjects\tech-request-pom\tech-request-vo\src\main\java\com\cy\tech\request\vo\converter\ReqConfirmDepCompleteTypeConverter.java
C:\Users\Joy_Wang\IdeaProjects\tech-request-pom\tech-request-vo\src\main\java\com\cy\tech\request\vo\pt\converter\PtAttachmentBehaviorConverter.java
C:\Users\Joy_Wang\IdeaProjects\tech-request-pom\tech-request-vo\src\main\java\com\cy\tech\request\vo\pt\PtAlert.java
C:\Users\Joy_Wang\IdeaProjects\tech-request-pom\tech-request-vo\src\main\java\com\cy\tech\request\vo\template\component\ComBaseTextArea.java
C:\Users\Joy_Wang\IdeaProjects\tech-request-pom\tech-request-vo\src\main\java\com\cy\tech\request\vo\pt\converter\PtHistoryBehaviorConverter.java
C:\Users\Joy_Wang\IdeaProjects\tech-request-pom\tech-request-vo\src\main\java\com\cy\tech\request\vo\require\AssignSendInfoForTrnsVO.java
C:\Users\Joy_Wang\IdeaProjects\tech-request-pom\tech-request-vo\src\main\java\com\cy\tech\request\vo\require\AssignSendSearchInfo.java
C:\Users\Joy_Wang\IdeaProjects\tech-request-pom\tech-request-vo\src\main\java\com\cy\tech\request\vo\require\tros\TrOsHistory.java
C:\Users\Joy_Wang\IdeaProjects\tech-request-pom\tech-request-vo\src\main\java\com\cy\tech\request\vo\template\component\ComEditorTypeOne.java
C:\Users\Joy_Wang\IdeaProjects\tech-request-pom\tech-request-vo\src\main\java\com\cy\tech\request\vo\value\to\CustomFilterColumnTo.java
C:\Users\Joy_Wang\IdeaProjects\tech-request-pom\tech-request-vo\src\main\java\com\cy\tech\request\vo\pps6\Pps6ModelerForm.java
C:\Users\Joy_Wang\IdeaProjects\tech-request-pom\tech-request-vo\src\main\java\com\cy\tech\request\vo\template\component\ComRadioTypeOne.java
C:\Users\Joy_Wang\IdeaProjects\tech-request-pom\tech-request-vo\src\main\java\com\cy\tech\request\vo\worktest\WorkTestSignInfo.java
C:\Users\Joy_Wang\IdeaProjects\tech-request-pom\tech-request-vo\src\main\java\com\cy\tech\request\vo\onpg\converter\WorkOnpgAttachmentBehaviorConverter.java
C:\Users\Joy_Wang\IdeaProjects\tech-request-pom\tech-request-vo\src\main\java\com\cy\tech\request\vo\template\component\ComSaba.java
C:\Users\Joy_Wang\IdeaProjects\tech-request-pom\tech-request-vo\src\main\java\com\cy\tech\request\vo\template\component\ComTextTypeOne.java
C:\Users\Joy_Wang\IdeaProjects\tech-request-pom\tech-request-vo\src\main\java\com\cy\tech\request\vo\worktest\TrWorkTestInfo.java
C:\Users\Joy_Wang\IdeaProjects\tech-request-pom\tech-request-vo\src\main\java\com\cy\tech\request\vo\setting\sysnotify\to\SettingSysNotifyTypeInfo.java
C:\Users\Joy_Wang\IdeaProjects\tech-request-pom\tech-request-vo\src\main\java\com\cy\tech\request\vo\menu\TrMenuGroupBase.java
C:\Users\Joy_Wang\IdeaProjects\tech-request-pom\tech-request-vo\src\main\java\com\cy\tech\request\vo\require\ReportCustomFilter.java
C:\Users\Joy_Wang\IdeaProjects\tech-request-pom\tech-request-vo\src\main\java\com\cy\tech\request\vo\require\AssignSendInfoHistory.java
C:\Users\Joy_Wang\IdeaProjects\tech-request-pom\tech-request-vo\src\main\java\com\cy\tech\request\vo\enums\ReqConfirmDepCompleteType.java
C:\Users\Joy_Wang\IdeaProjects\tech-request-pom\tech-request-vo\src\main\java\com\cy\tech\request\vo\require\othset\OthSetThemeDetail.java
C:\Users\Joy_Wang\IdeaProjects\tech-request-pom\tech-request-vo\src\main\java\com\cy\tech\request\vo\template\component\ComManyCheckBoxTypeOne.java
C:\Users\Joy_Wang\IdeaProjects\tech-request-pom\tech-request-vo\src\main\java\com\cy\tech\request\vo\worktest\InplaceControl.java
C:\Users\Joy_Wang\IdeaProjects\tech-request-pom\tech-request-vo\src\main\java\com\cy\tech\request\vo\category\SimpleMiddleCategoryVO.java
C:\Users\Joy_Wang\IdeaProjects\tech-request-pom\tech-request-vo\src\main\java\com\cy\tech\request\vo\anew\onpg\ReqWorkOnpg.java
C:\Users\Joy_Wang\IdeaProjects\tech-request-pom\tech-request-vo\src\main\java\com\cy\tech\request\vo\pps6\Pps6ModelerExecSetting.java
C:\Users\Joy_Wang\IdeaProjects\tech-request-pom\tech-request-vo\src\main\java\com\cy\tech\request\vo\enums\InboxType.java
C:\Users\Joy_Wang\IdeaProjects\tech-request-pom\tech-request-vo\src\main\java\com\cy\tech\request\vo\converter\OthSetAlertTypeConverter.java
C:\Users\Joy_Wang\IdeaProjects\tech-request-pom\tech-request-vo\src\main\java\com\cy\tech\request\vo\enums\ReadRecordStatus.java
C:\Users\Joy_Wang\IdeaProjects\tech-request-pom\tech-request-vo\src\main\java\com\cy\tech\request\vo\require\RequireReadRecord.java
C:\Users\Joy_Wang\IdeaProjects\tech-request-pom\tech-request-vo\src\main\java\com\cy\tech\request\vo\worktest\enums\WorkTestRollbackType.java
C:\Users\Joy_Wang\IdeaProjects\tech-request-pom\tech-request-vo\src\main\java\com\cy\tech\request\vo\converter\ReqToBeReadTypeConverter.java
C:\Users\Joy_Wang\IdeaProjects\tech-request-pom\tech-request-vo\src\main\java\com\cy\tech\request\vo\enums\WkCommonCacheType.java
C:\Users\Joy_Wang\IdeaProjects\tech-request-pom\tech-request-vo\src\main\java\com\cy\tech\request\vo\worktest\enums\WorkTestStatus.java
C:\Users\Joy_Wang\IdeaProjects\tech-request-pom\tech-request-vo\src\main\java\com\cy\tech\request\vo\template\component\ComBaseClear.java
C:\Users\Joy_Wang\IdeaProjects\tech-request-pom\tech-request-vo\src\main\java\com\cy\tech\request\vo\value\to\AssignSendGroupsDetailTo.java
C:\Users\Joy_Wang\IdeaProjects\tech-request-pom\tech-request-vo\src\main\java\com\cy\tech\request\vo\worktest\WorkTestAttachment.java
C:\Users\Joy_Wang\IdeaProjects\tech-request-pom\tech-request-vo\src\main\java\com\cy\tech\request\vo\converter\OthSetStatusConverter.java
C:\Users\Joy_Wang\IdeaProjects\tech-request-pom\tech-request-vo\src\main\java\com\cy\tech\request\vo\worktest\WorkTestAlreadyReply.java
C:\Users\Joy_Wang\IdeaProjects\tech-request-pom\tech-request-vo\src\main\java\com\cy\tech\request\vo\require\RequireAttachment.java
C:\Users\Joy_Wang\IdeaProjects\tech-request-pom\tech-request-vo\src\main\java\com\cy\tech\request\vo\pt\PtSignInfo.java
C:\Users\Joy_Wang\IdeaProjects\tech-request-pom\tech-request-vo\src\main\java\com\cy\tech\request\vo\value\to\DepTo.java
C:\Users\Joy_Wang\IdeaProjects\tech-request-pom\tech-request-vo\src\main\java\com\cy\tech\request\vo\value\to\DocComTemplateTo.java
C:\Users\Joy_Wang\IdeaProjects\tech-request-pom\tech-request-vo\src\main\java\com\cy\tech\request\vo\worktest\WorkTestReply.java
C:\Users\Joy_Wang\IdeaProjects\tech-request-pom\tech-request-vo\src\main\java\com\cy\tech\request\vo\require\Require.java
C:\Users\Joy_Wang\IdeaProjects\tech-request-pom\tech-request-vo\src\main\java\com\cy\tech\request\vo\enums\Search02QueryColumn.java
C:\Users\Joy_Wang\IdeaProjects\tech-request-pom\tech-request-vo\src\main\java\com\cy\tech\request\vo\worktest\WorkTestAlert.java
C:\Users\Joy_Wang\IdeaProjects\tech-request-pom\tech-request-vo\src\main\java\com\cy\tech\request\vo\enums\ReqConfirmDepProgStatus.java
C:\Users\Joy_Wang\IdeaProjects\tech-request-pom\tech-request-vo\src\main\java\com\cy\tech\request\vo\enums\MenuBaseType.java
C:\Users\Joy_Wang\IdeaProjects\tech-request-pom\tech-request-vo\src\main\java\com\cy\tech\request\vo\require\AssignSendInfoNativeTo.java
C:\Users\Joy_Wang\IdeaProjects\tech-request-pom\tech-request-vo\src\main\java\com\cy\tech\request\vo\category\BasicDataBigCategory.java
C:\Users\Joy_Wang\IdeaProjects\tech-request-pom\tech-request-vo\src\main\java\com\cy\tech\request\vo\converter\CustomColumnToConverter.java
C:\Users\Joy_Wang\IdeaProjects\tech-request-pom\tech-request-vo\src\main\java\com\cy\tech\request\vo\enums\Search17QueryColumn.java
C:\Users\Joy_Wang\IdeaProjects\tech-request-pom\tech-request-vo\src\main\java\com\cy\tech\request\vo\template\component\ComBase.java
C:\Users\Joy_Wang\IdeaProjects\tech-request-pom\tech-request-vo\src\main\java\com\cy\tech\request\vo\constants\ReqPermission.java
C:\Users\Joy_Wang\IdeaProjects\tech-request-pom\tech-request-vo\src\main\java\com\cy\tech\request\vo\converter\OthSetHistoryBehaviorConverter.java
C:\Users\Joy_Wang\IdeaProjects\tech-request-pom\tech-request-vo\src\main\java\com\cy\tech\request\vo\converter\RequireCheckItemTypeConverter.java
C:\Users\Joy_Wang\IdeaProjects\tech-request-pom\tech-request-vo\src\main\java\com\cy\tech\request\vo\template\component\ComBaseMultipleRadio.java
C:\Users\Joy_Wang\IdeaProjects\tech-request-pom\tech-request-vo\src\main\java\com\cy\tech\request\vo\enums\ComType.java
C:\Users\Joy_Wang\IdeaProjects\tech-request-pom\tech-request-vo\src\main\java\com\cy\tech\request\vo\worktest\converter\WorkTestInfoHistoryBehaviorConverter.java
C:\Users\Joy_Wang\IdeaProjects\tech-request-pom\tech-request-vo\src\main\java\com\cy\tech\request\vo\annotation\TemplateComMapParserDefaultValueAnnotation.java
C:\Users\Joy_Wang\IdeaProjects\tech-request-pom\tech-request-vo\src\main\java\com\cy\tech\request\vo\worktest\enums\WorkTestInfoStatus.java
C:\Users\Joy_Wang\IdeaProjects\tech-request-pom\tech-request-vo\src\main\java\com\cy\tech\request\vo\require\RequireLockRecord.java
C:\Users\Joy_Wang\IdeaProjects\tech-request-pom\tech-request-vo\src\main\java\com\cy\tech\request\vo\value\to\ReadRecordAdvanceTo.java
C:\Users\Joy_Wang\IdeaProjects\tech-request-pom\tech-request-vo\src\main\java\com\cy\tech\request\vo\converter\LogSyncMmsActionTypeConverter.java
C:\Users\Joy_Wang\IdeaProjects\tech-request-pom\tech-request-vo\src\main\java\com\cy\tech\request\vo\onpg\WorkOnpgCheckMemo.java
C:\Users\Joy_Wang\IdeaProjects\tech-request-pom\tech-request-vo\src\main\java\com\cy\tech\request\vo\template\component\ComRadioTypeTwo.java
C:\Users\Joy_Wang\IdeaProjects\tech-request-pom\tech-request-vo\src\main\java\com\cy\tech\request\vo\worktest\converter\WorkTestInfoStatusConverter.java
C:\Users\Joy_Wang\IdeaProjects\tech-request-pom\tech-request-vo\src\main\java\com\cy\tech\request\vo\onpg\enums\WorkOnpgCheckRecordReplyType.java
C:\Users\Joy_Wang\IdeaProjects\tech-request-pom\tech-request-vo\src\main\java\com\cy\tech\request\vo\converter\ComTypeConverter.java
C:\Users\Joy_Wang\IdeaProjects\tech-request-pom\tech-request-vo\src\main\java\com\cy\tech\request\vo\enums\SubNoticeType.java
C:\Users\Joy_Wang\IdeaProjects\tech-request-pom\tech-request-vo\src\main\java\com\cy\tech\request\vo\template\component\ComBaseList.java
C:\Users\Joy_Wang\IdeaProjects\tech-request-pom\tech-request-vo\src\main\java\com\cy\tech\request\vo\require\AssignSendInfoVO.java
C:\Users\Joy_Wang\IdeaProjects\tech-request-pom\tech-request-vo\src\main\java\com\cy\tech\request\vo\converter\GroupsToConverter.java
C:\Users\Joy_Wang\IdeaProjects\tech-request-pom\tech-request-vo\src\main\java\com\cy\tech\request\vo\enums\Search07QueryColumn.java
C:\Users\Joy_Wang\IdeaProjects\tech-request-pom\tech-request-vo\src\main\java\com\cy\tech\request\vo\setting\sysnotify\to\SettingSysNotifyMainInfo.java
C:\Users\Joy_Wang\IdeaProjects\tech-request-pom\tech-request-vo\src\main\java\com\cy\tech\request\vo\value\to\NotificationEventVO.java
C:\Users\Joy_Wang\IdeaProjects\tech-request-pom\tech-request-vo\src\main\java\com\cy\tech\request\vo\pt\converter\PtStatusConverter.java
C:\Users\Joy_Wang\IdeaProjects\tech-request-pom\tech-request-vo\src\main\java\com\cy\tech\request\vo\enums\Search04QueryColumn.java
C:\Users\Joy_Wang\IdeaProjects\tech-request-pom\tech-request-vo\src\main\java\com\cy\tech\request\vo\pt\PtHistory.java
C:\Users\Joy_Wang\IdeaProjects\tech-request-pom\tech-request-vo\src\main\java\com\cy\tech\request\vo\enums\Search01QueryColumn.java
C:\Users\Joy_Wang\IdeaProjects\tech-request-pom\tech-request-vo\src\main\java\com\cy\tech\request\vo\require\FogbugzAssign.java
C:\Users\Joy_Wang\IdeaProjects\tech-request-pom\tech-request-vo\src\main\java\com\cy\tech\request\vo\enums\OthSetAttachmentBehavior.java
C:\Users\Joy_Wang\IdeaProjects\tech-request-pom\tech-request-vo\src\main\java\com\cy\tech\request\vo\converter\DefaultValueJsonConverter.java
C:\Users\Joy_Wang\IdeaProjects\tech-request-pom\tech-request-vo\src\main\java\com\cy\tech\request\vo\converter\MenuBaseGroupTypeConverter.java
C:\Users\Joy_Wang\IdeaProjects\tech-request-pom\tech-request-vo\src\main\java\com\cy\tech\request\vo\worktest\WorkTestQAAlias.java
C:\Users\Joy_Wang\IdeaProjects\tech-request-pom\tech-request-vo\src\main\java\com\cy\tech\request\vo\require\othset\OthSetAlreadyReply.java
C:\Users\Joy_Wang\IdeaProjects\tech-request-pom\tech-request-vo\src\main\java\com\cy\tech\request\vo\require\tros\TrOs.java
C:\Users\Joy_Wang\IdeaProjects\tech-request-pom\tech-request-vo\src\main\java\com\cy\tech\request\vo\category\BasicDataMiddleCategory.java
C:\Users\Joy_Wang\IdeaProjects\tech-request-pom\tech-request-vo\src\main\java\com\cy\tech\request\vo\require\SimpleRequireIndexDictionary.java
C:\Users\Joy_Wang\IdeaProjects\tech-request-pom\tech-request-vo\src\main\java\com\cy\tech\request\vo\value\to\GroupsTo.java
C:\Users\Joy_Wang\IdeaProjects\tech-request-pom\tech-request-vo\src\main\java\com\cy\tech\request\vo\enums\OverdueUnclosedColumn.java
C:\Users\Joy_Wang\IdeaProjects\tech-request-pom\tech-request-vo\src\main\java\com\cy\tech\request\vo\require\AssignSendInfoHistoryVO.java
C:\Users\Joy_Wang\IdeaProjects\tech-request-pom\tech-request-vo\src\main\java\com\cy\tech\request\vo\exception\LockRecordException.java
C:\Users\Joy_Wang\IdeaProjects\tech-request-pom\tech-request-vo\src\main\java\com\cy\tech\request\vo\pt\WorkPtCheck.java
C:\Users\Joy_Wang\IdeaProjects\tech-request-pom\tech-request-vo\src\main\java\com\cy\tech\request\vo\category\SimpleBigCategoryVO.java
C:\Users\Joy_Wang\IdeaProjects\tech-request-pom\tech-request-vo\src\main\java\com\cy\tech\request\vo\category\SimpleBigCategory.java
C:\Users\Joy_Wang\IdeaProjects\tech-request-pom\tech-request-vo\src\main\java\com\cy\tech\request\vo\require\RequireIndexDictionary.java
C:\Users\Joy_Wang\IdeaProjects\tech-request-pom\tech-request-vo\src\main\java\com\cy\tech\request\vo\enums\FormType.java
C:\Users\Joy_Wang\IdeaProjects\tech-request-pom\tech-request-vo\src\main\java\com\cy\tech\request\vo\sp\SpecificRoleInquireDep.java
C:\Users\Joy_Wang\IdeaProjects\tech-request-pom\tech-request-vo\src\main\java\com\cy\tech\request\vo\enums\Search10QueryColumn.java
C:\Users\Joy_Wang\IdeaProjects\tech-request-pom\tech-request-vo\src\main\java\com\cy\tech\request\vo\value\to\WorkTestQaAliasVO.java
C:\Users\Joy_Wang\IdeaProjects\tech-request-pom\tech-request-vo\src\main\java\com\cy\tech\request\vo\converter\CateConfirmConverter.java
C:\Users\Joy_Wang\IdeaProjects\tech-request-pom\tech-request-vo\src\main\java\com\cy\tech\request\vo\onpg\WorkOnpgAlert.java
C:\Users\Joy_Wang\IdeaProjects\tech-request-pom\tech-request-vo\src\main\java\com\cy\tech\request\vo\converter\ReportCustomFilterConverter.java
C:\Users\Joy_Wang\IdeaProjects\tech-request-pom\tech-request-vo\src\main\java\com\cy\tech\request\vo\onpg\WorkOnpg.java
C:\Users\Joy_Wang\IdeaProjects\tech-request-pom\tech-request-vo\src\main\java\com\cy\tech\request\vo\converter\NotificationEventTypeConverter.java
C:\Users\Joy_Wang\IdeaProjects\tech-request-pom\tech-request-vo\src\main\java\com\cy\tech\request\vo\template\component\ComRadioTypeThree.java
C:\Users\Joy_Wang\IdeaProjects\tech-request-pom\tech-request-vo\src\main\java\com\cy\tech\request\vo\setting\SettingSpecSignGroup.java
C:\Users\Joy_Wang\IdeaProjects\tech-request-pom\tech-request-vo\src\main\java\com\cy\tech\request\vo\sp\SpecificRoleForwardDep.java
C:\Users\Joy_Wang\IdeaProjects\tech-request-pom\tech-request-vo\src\main\java\com\cy\tech\request\vo\worktest\enums\WorkTestInfoHistoryBehavior.java
C:\Users\Joy_Wang\IdeaProjects\tech-request-pom\tech-request-vo\src\main\java\com\cy\tech\request\vo\converter\ForwardDepToConverter.java
C:\Users\Joy_Wang\IdeaProjects\tech-request-pom\tech-request-vo\src\main\java\com\cy\tech\request\vo\enums\OverdueUnfinishedColumn.java
C:\Users\Joy_Wang\IdeaProjects\tech-request-pom\tech-request-vo\src\main\java\com\cy\tech\request\vo\converter\ReqConfirmDepProcTypeConverter.java
C:\Users\Joy_Wang\IdeaProjects\tech-request-pom\tech-request-vo\src\main\java\com\cy\tech\request\vo\enums\EhCacheType.java
C:\Users\Joy_Wang\IdeaProjects\tech-request-pom\tech-request-vo\src\main\java\com\cy\tech\request\vo\onpg\enums\WorkOnpgStatus.java
C:\Users\Joy_Wang\IdeaProjects\tech-request-pom\tech-request-vo\src\main\java\com\cy\tech\request\vo\value\to\RequireContentTo.java
C:\Users\Joy_Wang\IdeaProjects\tech-request-pom\tech-request-vo\src\main\java\com\cy\tech\request\vo\enums\CateConfirmType.java
C:\Users\Joy_Wang\IdeaProjects\tech-request-pom\tech-request-vo\src\main\java\com\cy\tech\request\vo\category\SimpleSmallCategory.java
C:\Users\Joy_Wang\IdeaProjects\tech-request-pom\tech-request-vo\src\main\java\com\cy\tech\request\vo\enums\ReqCateType.java
C:\Users\Joy_Wang\IdeaProjects\tech-request-pom\tech-request-vo\src\main\java\com\cy\tech\request\vo\converter\GroupSetupTypeConverter.java
C:\Users\Joy_Wang\IdeaProjects\tech-request-pom\tech-request-vo\src\main\java\com\cy\tech\request\vo\template\component\ComSelectItemCheckBoxListTypeOne.java
C:\Users\Joy_Wang\IdeaProjects\tech-request-pom\tech-request-vo\src\main\java\com\cy\tech\request\vo\converter\ReqConfirmDepProgStatusConverter.java
C:\Users\Joy_Wang\IdeaProjects\tech-request-pom\tech-request-vo\src\main\java\com\cy\tech\request\vo\value\to\TemplateComMapParserTo.java
C:\Users\Joy_Wang\IdeaProjects\tech-request-pom\tech-request-vo\src\main\java\com\cy\tech\request\vo\setting\sysnotify\SettingSysNotifyVO.java
