com\cy\tech\request\repository\require\othset\OthSetAttachmentRepo.class
com\cy\tech\request\repository\template\FieldKeyMappingRepository.class
com\cy\tech\request\repository\require\AssignSendSearchInfoRepo.class
com\cy\tech\request\repository\require\othset\OthSetReplyRepo.class
com\cy\tech\request\repository\TrNamedQueryRepository.class
com\cy\tech\request\repository\config\RepositoryConfig.class
com\cy\tech\request\repository\worktest\WorkTestInfoRepo.class
com\cy\tech\request\repository\require\RequireLockRecordRepository.class
com\cy\tech\request\repository\setting\WorkTestScheduleRepository.class
com\cy\tech\request\repository\require\tros\TrOsAttachmentRepository.class
com\cy\tech\request\repository\require\ReqExtraSettingRepository.class
com\cy\tech\request\repository\column\CustomColumnRepository.class
com\cy\tech\request\repository\require\tros\TrOsHistoryRepository.class
com\cy\tech\request\repository\pt\PtHistoryRepo.class
com\cy\tech\request\repository\require\tros\TrOsRepository.class
com\cy\tech\request\repository\onpg\WorkOnpgAlertRepo.class
com\cy\tech\request\repository\worktest\WorkTestInfoHistoryRepo.class
com\cy\tech\request\repository\require\FogbugzAssignRepository.class
com\cy\tech\request\repository\NewNativeSqlRepository.class
com\cy\tech\request\repository\setting\sysnotify\SettingSysNotifyRepository.class
com\cy\tech\request\repository\category\SimpleBigCategoryRepository.class
com\cy\tech\request\repository\pt\WorkPtCheckRepo.class
com\cy\tech\request\repository\report\favorite\HomePageFavoriteRepo.class
com\cy\tech\request\repository\CustomAliasToBeanResultTransformer.class
com\cy\tech\request\repository\require\pmis\PmisHistoryRepository.class
com\cy\tech\request\repository\require\othset\OthSetThemeDetailRepo.class
com\cy\tech\request\repository\require\AlertInboxRepository.class
com\cy\tech\request\repository\setting\SettingSpecSignGroupRepository.class
com\cy\tech\request\repository\worktest\TrWorkTestInfoRepo.class
com\cy\tech\request\repository\worktest\WorkTestQAReportRepo.class
com\cy\tech\request\repository\require\AssignSendInfoNativeToRepository.class
com\cy\tech\request\repository\category\SimpleMiddleCategoryRepository.class
com\cy\tech\request\repository\anew\onpg\ReqWorkOnpgRepo.class
com\cy\tech\request\repository\menu\TrMenuItemGroupRepository.class
com\cy\tech\request\repository\pps6\Pps6ModelerFormRepository.class
com\cy\tech\request\repository\onpg\WorkOnpgAttachmentRepo.class
com\cy\tech\request\repository\worktest\WorkTestReplyRepo.class
com\cy\tech\request\repository\category\SimpleSmallCategoryRepository.class
com\cy\tech\request\repository\pt\PtAttachmentRepo.class
com\cy\tech\request\repository\require\tros\TrOsAlertRepository.class
com\cy\tech\request\repository\require\RequireTempNotifyRepository.class
com\cy\tech\request\repository\require\RequireTraceRepository.class
com\cy\tech\request\repository\onpg\TrWorkOnpgRepo.class
com\cy\tech\request\repository\onpg\WorkOnpgHistoryRepo.class
com\cy\tech\request\repository\trostrans\TrOsTransRepository.class
com\cy\tech\request\repository\require\trace\TrRequireTraceRepository.class
com\cy\tech\request\repository\require\RequireUnitSignInfoRepository.class
com\cy\tech\request\repository\pt\PtCheckRepo.class
com\cy\tech\request\repository\sp\SpecificRoleInquireDepRepository.class
com\cy\tech\request\repository\pt\PtReplyRepo.class
com\cy\tech\request\repository\require\RequireFbkAttachmentRepo.class
com\cy\tech\request\repository\require\RequireRepository.class
com\cy\tech\request\repository\require\FogbugzProjectMappingRepository.class
com\cy\tech\request\repository\worktest\WorkTestSignInfoRepo.class
com\cy\tech\request\repository\require\othset\OthSetAlertRepo.class
com\cy\tech\request\repository\category\BasicDataMiddleCategoryRepository.class
com\cy\tech\request\repository\onpg\WorkOnpgCheckRecordRepo.class
com\cy\tech\request\repository\require\TrAlertInboxSendGroupRepository.class
com\cy\tech\request\repository\template\CategoryKeyMappingRepository.class
com\cy\tech\request\repository\require\feedback\ReqFbReplyAttachRepo.class
com\cy\tech\request\repository\require\TrnsBackupRepository.class
com\cy\tech\request\repository\require\AlertInboxSendGroupRepository.class
com\cy\tech\request\repository\menu\TrMenuItemRepository.class
com\cy\tech\request\repository\require\feedback\ReqFbReplyRepo.class
com\cy\tech\request\repository\require\FavoriteRepository.class
com\cy\tech\request\repository\require\SimpleRequireIndexDictionaryRepository.class
com\cy\tech\request\repository\require\RequireCheckItemRepository.class
com\cy\tech\request\repository\setting\SettingDefaultAssignSendDepHistoryRepository.class
com\cy\tech\request\repository\result\TransRequireVO.class
com\cy\tech\request\repository\category\TROtherCategoryRepository.class
com\cy\tech\request\repository\require\tros\TrOsReplyRepository.class
com\cy\tech\request\repository\result\SabaQueryResult.class
com\cy\tech\request\repository\require\RequireConfirmDepHistoryRepository.class
com\cy\tech\request\repository\setting\SettingDefaultAssignSendDepRepository.class
com\cy\tech\request\repository\require\othset\OthSetHistoryRepo.class
com\cy\tech\request\repository\pt\PtSignInfoRepo.class
com\cy\tech\request\repository\menu\TrMenuGroupBaseRepository.class
com\cy\tech\request\repository\require\RequireConfirmDepRepository.class
com\cy\tech\request\repository\notify\NotificationEventRepository.class
com\cy\tech\request\repository\require\othset\OthSetThemeRepo.class
com\cy\tech\request\repository\pps6\Pps6ModelerExecSettingRepository.class
com\cy\tech\request\repository\worktest\WorkTestAlertRepo.class
com\cy\tech\request\repository\category\BasicDataBigCategoryRepository.class
com\cy\tech\request\repository\require\TrAlertInboxRepository.class
com\cy\tech\request\repository\worktest\WorkTestQAAliasRepo.class
com\cy\tech\request\repository\require\AssignSendInfoRepo.class
com\cy\tech\request\repository\setting\SettingCheckConfirmRightRepository.class
com\cy\tech\request\repository\worktest\WorkTestAttachmentRepo.class
com\cy\tech\request\repository\onpg\WorkOnpgCheckMemoRepo.class
com\cy\tech\request\repository\require\AssignSendInfoHistoryRepository.class
com\cy\tech\request\repository\require\RequireIndexDictionaryRepository.class
com\cy\tech\request\repository\pt\PtAlreadyReplyRepo.class
com\cy\tech\request\repository\require\RequireCssContentRepository.class
com\cy\tech\request\repository\onpg\WorkOnpgRepo.class
com\cy\tech\request\repository\pt\PtAlertRepo.class
com\cy\tech\request\repository\require\TechManagerSignInfoRepository.class
com\cy\tech\request\repository\pps6\Pps6ModelerFlowRepository.class
com\cy\tech\request\repository\require\tros\TrOsReplyAndReplyRepository.class
com\cy\tech\request\repository\worktest\WorkTestAlreadyReplyRepo.class
com\cy\tech\request\repository\category\BasicDataSmallCategoryRepository.class
com\cy\tech\request\repository\require\ReportCustomFilterRepository.class
com\cy\tech\request\repository\require\TrRequireRepository.class
com\cy\tech\request\repository\require\TrSubNoticeInfoRepository.class
com\cy\tech\request\repository\template\TemplateBaseDataFieldRepository.class
com\cy\tech\request\repository\require\othset\OthSetRepo.class
com\cy\tech\request\repository\require\othset\OthSetAlreadyReplyRepo.class
com\cy\tech\request\repository\require\RequireAttachmentRepository.class
com\cy\tech\request\repository\require\ReqModifyRepo.class
com\cy\tech\request\repository\log\LogSyncMmsRepository.class
com\cy\tech\request\repository\onpg\WorkOnpgModifyRepo.class
com\cy\tech\request\repository\result\BatchAdjustDateVO.class
com\cy\tech\request\repository\onpg\WorkOnpgCheckRecordReplyRepo.class
