C:\Users\Joy_Wang\IdeaProjects\tech-request-pom\tech-request-rest-logic\src\main\java\com\cy\tech\request\rest\logic\alert\PtAlertRestService.java
C:\Users\Joy_Wang\IdeaProjects\tech-request-pom\tech-request-rest-logic\src\main\java\com\cy\tech\request\rest\logic\helper\ReqUnitProcessHelper.java
C:\Users\Joy_Wang\IdeaProjects\tech-request-pom\tech-request-rest-logic\src\main\java\com\cy\tech\request\rest\logic\helper\SendTestFormInfoHelper.java
C:\Users\Joy_Wang\IdeaProjects\tech-request-pom\tech-request-rest-logic\src\main\java\com\cy\tech\request\rest\logic\alert\OnpgAlertRestService.java
C:\Users\Joy_Wang\IdeaProjects\tech-request-pom\tech-request-rest-logic\src\main\java\com\cy\tech\request\rest\logic\helper\PtProcessHelper.java
C:\Users\Joy_Wang\IdeaProjects\tech-request-pom\tech-request-rest-logic\src\main\java\com\cy\tech\request\rest\logic\notify\vo\SettingSysNotifyVO.java
C:\Users\Joy_Wang\IdeaProjects\tech-request-pom\tech-request-rest-logic\src\main\java\com\cy\tech\request\rest\logic\search\service\SendTestQueryFroRestService.java
C:\Users\Joy_Wang\IdeaProjects\tech-request-pom\tech-request-rest-logic\src\main\java\com\cy\tech\request\rest\logic\process\SendTestSignForRestService.java
C:\Users\Joy_Wang\IdeaProjects\tech-request-pom\tech-request-rest-logic\src\main\java\com\cy\tech\request\rest\logic\search\vo\PtView.java
C:\Users\Joy_Wang\IdeaProjects\tech-request-pom\tech-request-rest-logic\src\main\java\com\cy\tech\request\rest\logic\config\LogicConfig.java
C:\Users\Joy_Wang\IdeaProjects\tech-request-pom\tech-request-rest-logic\src\main\java\com\cy\tech\request\rest\logic\to\CategoryTo.java
C:\Users\Joy_Wang\IdeaProjects\tech-request-pom\tech-request-rest-logic\src\main\java\com\cy\tech\request\rest\logic\helper\AbstractFormInfoHelper.java
C:\Users\Joy_Wang\IdeaProjects\tech-request-pom\tech-request-rest-logic\src\main\java\com\cy\tech\request\rest\logic\process\BPMHelper.java
C:\Users\Joy_Wang\IdeaProjects\tech-request-pom\tech-request-rest-logic\src\main\java\com\cy\tech\request\rest\logic\category\CategoryService.java
C:\Users\Joy_Wang\IdeaProjects\tech-request-pom\tech-request-rest-logic\src\main\java\com\cy\tech\request\rest\logic\process\PtSignService.java
C:\Users\Joy_Wang\IdeaProjects\tech-request-pom\tech-request-rest-logic\src\main\java\com\cy\tech\request\rest\logic\helper\PtFormInfoHelper.java
C:\Users\Joy_Wang\IdeaProjects\tech-request-pom\tech-request-rest-logic\src\main\java\com\cy\tech\request\rest\logic\onpg\ReqRestWorkCountService.java
C:\Users\Joy_Wang\IdeaProjects\tech-request-pom\tech-request-rest-logic\src\main\java\com\cy\tech\request\rest\logic\to\WorkOnpgTo.java
C:\Users\Joy_Wang\IdeaProjects\tech-request-pom\tech-request-rest-logic\src\main\java\com\cy\tech\request\rest\logic\search\service\PtRestQueryService.java
C:\Users\Joy_Wang\IdeaProjects\tech-request-pom\tech-request-rest-logic\src\main\java\com\cy\tech\request\rest\logic\search\vo\SendTestView.java
C:\Users\Joy_Wang\IdeaProjects\tech-request-pom\tech-request-rest-logic\src\main\java\com\cy\tech\request\rest\logic\notify\ReqNotifyService.java
C:\Users\Joy_Wang\IdeaProjects\tech-request-pom\tech-request-rest-logic\src\main\java\com\cy\tech\request\rest\logic\helper\SendTestProcessHelper.java
C:\Users\Joy_Wang\IdeaProjects\tech-request-pom\tech-request-rest-logic\src\main\java\com\cy\tech\request\rest\logic\process\ReqUnitSignService.java
C:\Users\Joy_Wang\IdeaProjects\tech-request-pom\tech-request-rest-logic\src\main\java\com\cy\tech\request\rest\logic\to\PtAlertTo.java
C:\Users\Joy_Wang\IdeaProjects\tech-request-pom\tech-request-rest-logic\src\main\java\com\cy\tech\request\rest\logic\helper\ReqUnitFormInfoHelper.java
C:\Users\Joy_Wang\IdeaProjects\tech-request-pom\tech-request-rest-logic\src\main\java\com\cy\tech\request\rest\logic\to\WorkTestAlertTo.java
C:\Users\Joy_Wang\IdeaProjects\tech-request-pom\tech-request-rest-logic\src\main\java\com\cy\tech\request\rest\logic\to\WorkOnpgAlertTo.java
C:\Users\Joy_Wang\IdeaProjects\tech-request-pom\tech-request-rest-logic\src\main\java\com\cy\tech\request\rest\logic\CountToDoService.java
C:\Users\Joy_Wang\IdeaProjects\tech-request-pom\tech-request-rest-logic\src\main\java\com\cy\tech\request\rest\logic\to\OthSetAlertTo.java
C:\Users\Joy_Wang\IdeaProjects\tech-request-pom\tech-request-rest-logic\src\main\java\com\cy\tech\request\rest\logic\search\vo\RequireUnitView.java
C:\Users\Joy_Wang\IdeaProjects\tech-request-pom\tech-request-rest-logic\src\main\java\com\cy\tech\request\rest\logic\alert\SendTestAlertRestService.java
C:\Users\Joy_Wang\IdeaProjects\tech-request-pom\tech-request-rest-logic\src\main\java\com\cy\tech\request\rest\logic\config\XSyncConfig.java
C:\Users\Joy_Wang\IdeaProjects\tech-request-pom\tech-request-rest-logic\src\main\java\com\cy\tech\request\rest\logic\to\WorkNotifyTo.java
C:\Users\Joy_Wang\IdeaProjects\tech-request-pom\tech-request-rest-logic\src\main\java\com\cy\tech\request\rest\logic\search\service\ReqUnitQueryForRestService.java
C:\Users\Joy_Wang\IdeaProjects\tech-request-pom\tech-request-rest-logic\src\main\java\com\cy\tech\request\rest\logic\ReqUrlRestService.java
C:\Users\Joy_Wang\IdeaProjects\tech-request-pom\tech-request-rest-logic\src\main\java\com\cy\tech\request\rest\logic\alert\OthSetAlertRestService.java
C:\Users\Joy_Wang\IdeaProjects\tech-request-pom\tech-request-rest-logic\src\main\java\com\cy\tech\request\rest\logic\enums\ActionType.java
C:\Users\Joy_Wang\IdeaProjects\tech-request-pom\tech-request-rest-logic\src\main\java\com\cy\tech\request\rest\logic\helper\FormHelper.java
C:\Users\Joy_Wang\IdeaProjects\tech-request-pom\tech-request-rest-logic\src\main\java\com\cy\tech\request\rest\logic\schedule\ScheduleAssignUnReadNoticeService.java
